result_state,result_text
00000,successful completion
U0100,class or item:%s not exists
U0101,class or item:%s exists
U0102,class or item:id:%s duplicate
U0103,class or item:id:%s mismatch uid:%s
U0200,account:%s exists
U0201,account:%s not exists
U0202,account:%s duplicate
U0203,password not exists
U0204,password duplicate
U0205,account:%s mismatch password
U0206,account:%s mismatch birthday
