origin_id,relate_id,flag
SysAdmin,role_system_administrator,f
role_system_administrator,ui_system_ci_manage,f
role_system_administrator,ui_system_ci_relation_manage,f
role_system_administrator,ui_system_class_info_manage,f
role_system_administrator,ui_system_class_manage,f
role_system_administrator,ui_system_class_relation_manage,f
ui_system_ci_manage,menu_system_ci_manage,f
ui_system_ci_relation_manage,menu_system_ci_relation_manage,f
ui_system_class_info_manage,menu_system_class_info_manage,f
ui_system_class_manage,menu_system_class_manage,f
ui_system_class_relation_manage,menu_system_class_relation_manage,f
